"{F799167A-933D-4A33-8823-01CB7CFD43BB}","41950","1995-06-30 00:00","S20 2QW","S","N","F","5","","MILBURN COURT","SOTHALL","SHEFFIELD","SHEFFIELD","SOUTH YORKSHIRE","A","A"
"{F92BFA2D-E063-44E4-97C2-01CB94EF4288}","215000","1995-03-10 00:00","NW1 9UB","T","N","F","80","","MARQUIS ROAD","LONDON","LONDON","CAMDEN","GREATER LONDON","A","A"
"{252D6C72-6445-4EB8-9D08-01CBA4FA3237}","94000","1995-09-01 00:00","RG26 3UR","D","N","F","18","","RAMPTONS MEADOW","TADLEY","TADLEY","BASINGSTOKE AND DEANE","HAMPSHIRE","A","A"
"{EC4302F9-3402-41D9-B247-01CBC012CD57}","70500","1995-03-24 00:00","CV35 9RZ","D","N","F","5","","BROOKSIDE AVENUE","WELLESBOURNE","WARWICK","STRATFORD-ON-AVON","WARWICKSHIRE","A","A"
"{B4B39FAC-550D-41BD-BDD6-01CBDF03A02B}","26000","1995-12-18 00:00","SR4 7DY","T","N","F","11","","HOUGHTON STREET","SUNDERLAND","SUNDERLAND","SUNDERLAND","TYNE AND WEAR","A","A"
"{A14B577B-B6B5-4008-A28C-01CBF7C17045}","37500","1995-08-31 00:00","LE14 3YP","S","N","F","23","","WHITLOCK WAY","ASFORDBY","MELTON MOWBRAY","MELTON","LEICESTERSHIRE","A","A"
"{280CF787-2027-4431-A00E-01CC13C89986}","60000","1995-06-23 00:00","SP10 1JG","S","N","F","43","","VALENCIA WAY","ANDOVER","ANDOVER","TEST VALLEY","HAMPSHIRE","A","A"
"{22029C68-4549-485C-A076-01CC26F14BA3}","40000","1995-03-24 00:00","LL34 6RW","S","N","F","70","","GWYNAN PARK","DWYGYFYLCHI","PENMAENMAWR","ABERCONWY","GWYNEDD","A","A"
"{1F073FD2-BB0C-47DD-85C7-01CC31874D35}","51500","1995-02-24 00:00","TA4 3NJ","T","N","F","22","","HAMBER LEA","BISHOPS LYDEARD","TAUNTON","TAUNTON DEANE","SOMERSET","A","A"
"{EF55043A-114B-40BE-98F5-01CC4D74D49D}","30500","1995-11-30 00:00","LU4 9JG","S","N","F","31","","MONTAGUE AVENUE","LUTON","LUTON","LUTON","LUTON","A","A"
"{934524F1-8AA6-4597-8E5E-01CC5A8B9475}","46500","1995-12-15 00:00","LE16 7EQ","S","N","F","8","","DOUGLASS DRIVE","MARKET HARBOROUGH","MARKET HARBOROUGH","HARBOROUGH","LEICESTERSHIRE","A","A"
"{6F595A64-A6A0-444E-9AEE-01CC6284317A}","20655","1995-10-02 00:00","TA4 3JW","S","N","F","1","","HILLS COTTAGES","FITZHEAD","TAUNTON","TAUNTON DEANE","SOMERSET","A","A"
"{B8073126-83C5-4041-A78F-01CCC5507370}","37500","1995-09-08 00:00","NR33 8LD","S","N","F","11","","BEAUMONT ROAD","CARLTON COLVILLE","LOWESTOFT","WAVENEY","SUFFOLK","A","A"
"{CA4CA19A-4E70-4B1E-8BEA-01CCFDBDB457}","28000","1995-09-01 00:00","NG8 6ER","T","N","F","15","","HALSTEAD CLOSE","NOTTINGHAM","NOTTINGHAM","NOTTINGHAM","NOTTINGHAMSHIRE","A","A"
"{42E49D2B-0822-4D92-96A2-01CD4E8E05C5}","45000","1995-03-10 00:00","WR3 7PF","S","N","F","20","","MORRIN CLOSE","WORCESTER","WORCESTER","WORCESTER","WORCESTERSHIRE","A","A"
"{D4A83666-F2D2-458A-819E-01CD737AC1B8}","12000","1995-11-30 00:00","WN7 2LZ","S","N","L","319","","MANCHESTER ROAD","LEIGH","LEIGH","WIGAN","GREATER MANCHESTER","A","A"
"{CBAA1756-FAE3-487B-B3A1-01CD7BB73D74}","40000","1995-03-03 00:00","OX16 9JA","S","N","F","41","","WYKHAM PLACE","BANBURY","BANBURY","CHERWELL","OXFORDSHIRE","A","A"
"{24CE5DD3-05F5-4A20-B4E2-01CD7E380A9E}","60000","1995-07-20 00:00","CW9 5PL","D","N","F","15","","DANE BANK ROAD","NORTHWICH","NORTHWICH","VALE ROYAL","CHESHIRE","A","A"
"{EE7D5E9D-20C9-493E-ABFD-01CDB4C8DE5E}","11000","1995-11-30 00:00","SK5 8DJ","S","N","F","18","","CUMBERLAND AVENUE","STOCKPORT","STOCKPORT","STOCKPORT","GREATER MANCHESTER","A","A"
"{F509FD5E-33B9-4A92-A568-01CDBD90CC84}","59950","1995-12-21 00:00","SO45 1XD","S","Y","F","1","","MONKS ROW","BLACKFIELD","SOUTHAMPTON","NEW FOREST","HAMPSHIRE","A","A"
"{0A8AAC10-E666-4206-9D6C-01CE11F750CB}","20500","1995-07-28 00:00","SO15 5BP","F","N","L","2","FLAT 2","HOWARD ROAD","SOUTHAMPTON","SOUTHAMPTON","SOUTHAMPTON","SOUTHAMPTON","A","A"
"{7C1E3CCC-89A1-4AE6-85F2-01CE179463C3}","45000","1995-11-13 00:00","TR11 3BN","T","N","F","16","","WELLINGTON TERRACE","FALMOUTH","FALMOUTH","CARRICK","CORNWALL","A","A"
"{AC583FE2-5B12-4F2E-AE33-01CE24B62CC7}","91000","1995-07-04 00:00","SP4 0AY","D","N","F","17","","MARKAN ROAD","IDMISTON","SALISBURY","SALISBURY","WILTSHIRE","A","A"
"{3F304BB7-AB9B-497D-A8ED-01CE3934F4E0}","106000","1995-03-29 00:00","BS24 0BE","D","Y","F","30","","BLEADON MILL","BLEADON","WESTON-SUPER-MARE","WOODSPRING","AVON","A","A"
"{16C900B0-72E2-4DCD-94E2-01CE4CEC9A8C}","22000","1995-02-01 00:00","DN32 9DW","T","N","L","209","","FREEMAN STREET","GRIMSBY","GRIMSBY","GREAT GRIMSBY","HUMBERSIDE","A","A"
"{3AFE0757-840F-41D3-94FA-01CE5110C033}","70000","1995-09-29 00:00","B17 9DT","T","N","L","66","","MOOR POOL AVENUE","BIRMINGHAM","BIRMINGHAM","BIRMINGHAM","WEST MIDLANDS","A","A"
"{D7334798-421E-4BD2-A1DF-00990D790C73}","45500","1995-03-08 00:00","GU34 2RD","F","N","L","WAYVAN COURT, 33 - 35","FLAT 1","ANSTEY ROAD","ALTON","ALTON","EAST HAMPSHIRE","HAMPSHIRE","A","A"
"{80AF7BD6-29DE-40F6-A93B-000027454BAA}","48500","1995-07-03 00:00","NR27 9DP","F","N","L","COLNE HOUSE","10","COLNE ROAD","CROMER","CROMER","NORTH NORFOLK","NORFOLK","A","A"
"{19203E0D-F0A9-4217-B319-01CEA091B935}","52000","1995-03-13 00:00","PO30 5GR","T","N","F","22","","KESTREL WAY","NEWPORT","NEWPORT","ISLE OF WIGHT","ISLE OF WIGHT","A","A"
"{085974FD-6E1E-451F-8794-000051E449B5}","38500","1995-04-28 00:00","WN1 3YA","S","N","F","227","","PLATT LANE","WIGAN","WIGAN","WIGAN","GREATER MANCHESTER","A","A"
"{7397EC76-0EAD-4978-A5D9-0000524FBBD9}","31000","1995-11-30 00:00","GL3 1NT","F","N","L","59","","RALEIGH CLOSE","CHURCHDOWN","GLOUCESTER","GLOUCESTER","GLOUCESTERSHIRE","A","A"
"{BFFECB77-4208-4416-8662-00005A94F4DF}","485000","1995-07-28 00:00","NW6 1UH","T","N","F","12","","PARSIFAL ROAD","LONDON","LONDON","CAMDEN","GREATER LONDON","A","A"
"{4155BCA0-ECCD-4B1A-97CE-00006B50A759}","48500","1995-07-14 00:00","BH9 3PJ","T","N","F","47","","BRADFORD ROAD","BOURNEMOUTH","BOURNEMOUTH","BOURNEMOUTH","BOURNEMOUTH","A","A"
"{00CF9B63-04F4-45AE-9667-0000869CFDA5}","53995","1995-06-30 00:00","LS27 9SA","S","Y","F","41","","LANESIDE GARDENS","MORLEY","LEEDS","LEEDS","WEST YORKSHIRE","A","A"
"{B81F4383-8FBA-4B26-BD4F-01CEAA649566}","19000","1995-03-31 00:00","BL4 0BX","T","N","L","101","","PLODDER LANE","FARNWORTH","BOLTON","BOLTON","GREATER MANCHESTER","A","A"
"{33717BC1-8FA2-4882-8AD7-01CED6164B5C}","42000","1995-06-29 00:00","SL3 8SH","F","N","L","79","FLAT 3","HARROW ROAD","SLOUGH","SLOUGH","SLOUGH","SLOUGH","A","A"
"{0DBDCC50-2A12-4714-BB25-00996F39514A}","76500","1995-06-30 00:00","SG8 7EP","D","N","F","47","","POPLAR DRIVE","ROYSTON","ROYSTON","NORTH HERTFORDSHIRE","HERTFORDSHIRE","A","A"
"{C82CC471-D025-43CC-9FCD-009970C94C74}","83000","1995-02-24 00:00","GU2 7SH","S","N","F","37","","ELMSIDE","GUILDFORD","GUILDFORD","GUILDFORD","SURREY","A","A"
"{EEF15CEA-8607-4D95-8AAF-00997C04AF00}","43000","1995-12-21 00:00","M8 4JE","S","N","L","17","","CEDRIC ROAD","MANCHESTER","MANCHESTER","MANCHESTER","GREATER MANCHESTER","A","A"
"{B887ED0F-9CF7-4CF2-9B4D-00997CBBA4C8}","57000","1995-12-01 00:00","CM14 4FH","F","N","L","1","","HIGHGROVE HOUSES","BRENTWOOD","BRENTWOOD","BRENTWOOD","ESSEX","A","A"
"{9AAFDF73-1FFD-47E6-A494-00997F223C68}","24000","1995-12-15 00:00","DN14 5EH","T","N","F","97","","EDINBURGH STREET","GOOLE","GOOLE","BOOTHFERRY","HUMBERSIDE","A","A"
"{83C65229-9840-47AF-9C03-00998288370B}","85000","1995-08-25 00:00","WD3 9ST","S","N","F","21","","WOODLAND ROAD","MAPLE CROSS","RICKMANSWORTH","THREE RIVERS","HERTFORDSHIRE","A","A"
"{D1C5646C-FB53-4EDA-AF0E-0099846E6912}","24500","1995-03-31 00:00","BS5 8QP","T","N","F","114","","NAGS HEAD HILL","BRISTOL","BRISTOL","BRISTOL","AVON","A","A"
"{B2EC4B43-3C5F-4B76-9FF4-00998BB17E52}","45500","1995-03-21 00:00","CM7 9TD","S","N","F","22","","HAWKINS WAY","BRAINTREE","BRAINTREE","BRAINTREE","ESSEX","A","A"
"{4071FEF6-AF04-442E-8EBC-01CEF491D6B6}","35950","1995-06-23 00:00","LS13 3PA","T","N","F","24","","GROSMONT PLACE","LEEDS","LEEDS","LEEDS","WEST YORKSHIRE","A","A"
"{3575238D-F128-4671-A32D-01CEFC58F3C1}","53000","1995-09-08 00:00","LL65 2AX","D","N","F","GARTH","","RAVENSPOINT ROAD","TREARDDUR BAY","HOLYHEAD","ISLE OF ANGLESEY","ISLE OF ANGLESEY","A","A"
"{CC909C42-F4CA-4B2E-9EBD-0000A7A54F25}","41000","1995-11-24 00:00","ME7 4DX","T","N","F","87","","BARNSOLE ROAD","GILLINGHAM","GILLINGHAM","GILLINGHAM","KENT","A","A"
"{BCD046B9-C4B9-4454-AF6F-0000B8C9B076}","105000","1995-06-30 00:00","CA3 9LZ","S","N","F","5","","EDEN MOUNT","CARLISLE","CARLISLE","CARLISLE","CUMBRIA","A","A"
"{4B542201-5210-4D37-BEE6-0000C0F2DE32}","58995","1995-10-27 00:00","TS8 9XX","S","Y","F","58","","WESTRAY","MARTON IN CLEVELAND","MIDDLESBROUGH","MIDDLESBROUGH","MIDDLESBROUGH","A","A"
"{42CDD65D-8DF7-470E-9141-0099A03E1038}","99995","1995-12-15 00:00","PO15 7DU","D","Y","F","15","","ANDALUSIAN GARDENS","WHITELEY","FAREHAM","FAREHAM","HAMPSHIRE","A","A"
"{097BEC68-FD33-4AB7-A1CC-0099C91985F7}","38500","1995-11-30 00:00","TN23 5YQ","T","N","F","19","","BENSTED","ASHFORD","ASHFORD","ASHFORD","KENT","A","A"
"{C8668914-5A61-4BBA-9B20-009A0BAFCF67}","21000","1995-07-07 00:00","BD6 1AP","T","N","F","26","","BANKWELL FOLD","BRADFORD","BRADFORD","BRADFORD","WEST YORKSHIRE","A","A"
"{754942D8-1850-4D36-8723-009A1697239B}","42500","1995-07-12 00:00","SN1 5QP","T","N","F","8","","MORSE STREET","SWINDON","SWINDON","THAMESDOWN","THAMESDOWN","A","A"
"{947E8500-42B6-46AA-A2C7-01CF69F94591}","78000","1995-10-26 00:00","SG2 8JN","D","N","F","62","","MANDEVILLE","STEVENAGE","STEVENAGE","STEVENAGE","HERTFORDSHIRE","A","A"
"{73B24F96-5337-45AC-80E0-01CF6C756859}","137000","1995-06-20 00:00","PO4 9XQ","F","Y","L","WILKINSON HOUSE","FLAT 5","GUNNERS ROW","SOUTHSEA","SOUTHSEA","PORTSMOUTH","PORTSMOUTH","A","A"
"{1A167A2A-C480-4871-A668-01CF782E9530}","100000","1995-08-23 00:00","NW8 9TX","F","N","L","EYRE COURT, 3 - 21","FLAT 92","FINCHLEY ROAD","LONDON","LONDON","CITY OF WESTMINSTER","GREATER LONDON","A","A"
"{3D23F8D9-05CB-4473-9AFC-01CF7C19EE32}","54950","1995-06-28 00:00","SP8 4UF","T","Y","F","18","","WOODSAGE DRIVE","GILLINGHAM","GILLINGHAM","NORTH DORSET","DORSET","A","A"
"{D909DFFF-6573-44A8-994E-000100214D10}","145000","1995-05-11 00:00","SY5 7JW","D","N","F","EAST MYND","","MAIN ROAD","DORRINGTON","SHREWSBURY","SHREWSBURY AND ATCHAM","SHROPSHIRE","A","A"
"{A4274AE5-EEA6-4F6C-BBC3-009A3235E343}","96500","1995-07-17 00:00","B75 6NQ","D","N","F","69","","HEATH CROFT ROAD","SUTTON COLDFIELD","SUTTON COLDFIELD","BIRMINGHAM","WEST MIDLANDS","A","A"
"{774FB2DE-43C8-41A2-8D83-009A361B2835}","61000","1995-11-24 00:00","SM6 8JY","S","N","F","48","","UPPER ROAD","WALLINGTON","WALLINGTON","SUTTON","GREATER LONDON","A","A"
"{B92A0E8F-165C-4650-9379-009A4D7E62DC}","27000","1995-04-28 00:00","OL13 0NT","T","N","L","2","","WEST GARDENS","BACUP","BACUP","ROSSENDALE","LANCASHIRE","A","A"
"{2C6EB2EF-D918-40CC-B38D-009A5AEEE9EA}","73000","1995-01-26 00:00","SS11 8ET","S","N","F","49","","GLEBE ROAD","WICKFORD","WICKFORD","BASILDON","ESSEX","A","A"
"{BFF827AE-30EE-4ADC-8B94-009A5FD23868}","65000","1995-12-15 00:00","LN2 2NF","S","N","F","LEVERTON","","LINCOLN ROAD","NETTLEHAM","LINCOLN","LINCOLN","LINCOLNSHIRE","A","A"
"{F69A8B6E-B2F7-4821-8E01-01CF9DBA62D1}","42000","1995-05-19 00:00","PO13 0TY","S","N","F","11","","HARWOOD CLOSE","GOSPORT","GOSPORT","GOSPORT","HAMPSHIRE","A","A"
"{3B64AC08-999C-4107-9F2A-01CFAA83E1CE}","104000","1995-04-03 00:00","GU12 5HA","S","N","F","FLIMBY LODGE, 16","FLAT 2","HUTTON ROAD","ASH VALE","ALDERSHOT","GUILDFORD","SURREY","A","A"
"{9E58D59F-CB8F-4A2D-90F2-01CFB107E39A}","60000","1995-07-21 00:00","CO6 3ND","D","N","F","IVY COTTAGE","","SUNNYSIDE ROAD","FORDHAM","COLCHESTER","COLCHESTER","ESSEX","A","A"
"{DE63FA54-5E5C-424C-A567-01CFBCB06A66}","56500","1995-02-10 00:00","EX31 2SN","T","N","F","11","","COLOMBELLES CLOSE","FREMINGTON","BARNSTAPLE","NORTH DEVON","DEVON","A","A"
"{04D92DAF-8513-46CE-8364-009A6C9EAB91}","54000","1995-05-12 00:00","NG11 6HF","T","N","F","29","","SHAW STREET","RUDDINGTON","NOTTINGHAM","RUSHCLIFFE","NOTTINGHAMSHIRE","A","A"
"{4F8239F6-BF1B-472B-A103-009A71D86490}","72500","1995-03-28 00:00","PL1 2PY","T","N","F","262","","CITADEL ROAD","PLYMOUTH","PLYMOUTH","PLYMOUTH","DEVON","A","A"
"{D88B06FB-5B38-40F1-88C1-009A81A22EF9}","12500","1995-07-25 00:00","CF47 8NB","T","N","F","9","","CAMBRIAN STREET","MORGANTOWN","MERTHYR TYDFIL","MERTHYR TYDFIL","MERTHYR TYDFIL","A","A"
"{ADBEB403-0C25-4214-8799-009A8CCC2E2B}","70000","1995-05-05 00:00","EX8 2NQ","S","N","F","32","","AVONDALE ROAD","EXMOUTH","EXMOUTH","EAST DEVON","DEVON","A","A"
"{E7E68E8B-4AC0-452A-AF6A-00012A70F476}","48500","1995-04-25 00:00","SA8 3DJ","S","N","L","55","","TYN Y CAE","PONTARDAWE","SWANSEA","LLIW VALLEY","WEST GLAMORGAN","A","A"
"{A71E20B0-546E-4F59-9F0A-00012BDD3617}","84000","1995-09-01 00:00","OX18 2TD","S","Y","F","2","","HIGH HOUSE CLOSE","CLANFIELD","BAMPTON","WEST OXFORDSHIRE","OXFORDSHIRE","A","A"
"{237D908E-448E-4EDE-B6A7-01CFDF77766C}","43000","1995-09-29 00:00","TR18 2PB","T","N","F","13","","ST CLARE STREET","PENZANCE","PENZANCE","PENWITH","CORNWALL","A","A"
"{68A21AE3-07B1-43FA-BCE3-01CFFE446185}","57950","1995-01-27 00:00","ST8 6TJ","D","Y","F","4","","BLUEBELL CLOSE","BIDDULPH","STOKE-ON-TRENT","STAFFORDSHIRE MOORLANDS","STAFFORDSHIRE","A","A"
"{D4ACDB03-3BE9-4B35-B882-009AA7FC8DDD}","56950","1995-03-17 00:00","SS4 3AW","S","Y","F","76","","RECTORY AVENUE","ROCHFORD","ROCHFORD","ROCHFORD","ESSEX","A","A"
"{02B91EEC-88D9-415C-AA17-009AB2922D40}","38500","1995-11-28 00:00","PE1 4HT","T","N","F","43","","WESTERN AVENUE","DOGSTHORPE","PETERBOROUGH","PETERBOROUGH","CAMBRIDGESHIRE","A","A"
"{B45E021D-22FC-40B5-9A73-009ABB9B288E}","48500","1995-11-10 00:00","DE23 1GA","S","N","F","26","","GAYTON AVENUE","LITTLEOVER","DERBY","DERBY","DERBYSHIRE","A","A"
"{75238329-FA80-4749-AD39-009ADBF86FB5}","55000","1995-08-30 00:00","RG6 1NH","T","N","F","30","","PITCROFT AVENUE","READING","READING","READING","READING","A","A"
"{509381D7-13EF-4228-936D-009ADD5833D0}","162500","1995-09-04 00:00","LS28 7UE","D","N","F","3","","THE GLADE","STANNINGLEY","PUDSEY","LEEDS","WEST YORKSHIRE","A","A"
"{80CB9B0A-8C3B-4859-894B-01D014926FF1}","28250","1995-10-13 00:00","BS3 5LT","S","N","F","64","","LYNTON ROAD","BRISTOL","BRISTOL","BRISTOL","AVON","A","A"
"{FC979A9E-FCAF-4413-8614-01D03D34FA4F}","113000","1995-03-24 00:00","BS35 2PX","D","Y","F","11","","HOPKINS CLOSE","THORNBURY","BRISTOL","NORTHAVON","AVON","A","A"
"{C5BD82B7-AC83-44FC-B91D-01D044BAF26B}","53000","1995-03-31 00:00","ME20 6LF","T","N","F","14","","SWALLOW ROAD","LARKFIELD","AYLESFORD","TONBRIDGE AND MALLING","KENT","A","A"
"{3C8B360F-AAA8-4FF6-B737-01D04BF55F0C}","68000","1995-10-20 00:00","OX12 9XT","S","N","F","64","","WARMANS CLOSE","WANTAGE","WANTAGE","VALE OF WHITE HORSE","OXFORDSHIRE","A","A"
"{C73DE2BF-A3DB-4397-9FDB-01D05934C475}","59500","1995-01-06 00:00","EX4 8ES","S","N","F","47","","STRATFORD AVENUE","EXETER","EXETER","EXETER","DEVON","A","A"
"{9C045D8F-D8A7-4C13-B6D7-01D07B1E6EDC}","67685","1995-03-10 00:00","OX33 1QE","T","Y","F","17","","FAIRFAX GATE","HOLTON","OXFORD","SOUTH OXFORDSHIRE","OXFORDSHIRE","A","A"
"{D2E64C94-F0E7-4E1A-ADD5-01D07C6E4A30}","44500","1995-12-15 00:00","B31 3NG","S","N","F","9","","FRYER ROAD","BIRMINGHAM","BIRMINGHAM","BIRMINGHAM","WEST MIDLANDS","A","A"
"{0D33263F-0695-4954-A138-00015635B36E}","190000","1995-05-12 00:00","HX3 8QX","D","N","F","CHERRY DENE","","NORWOOD GREEN HILL","HALIFAX","HALIFAX","CALDERDALE","WEST YORKSHIRE","A","A"
"{02F14E52-A8D2-4024-8C3C-00015B766F00}","58000","1995-07-18 00:00","PO9 1EL","F","Y","L","EMPIRE COURT, 29","FLAT 7","EAST STREET","HAVANT","HAVANT","HAVANT","HAMPSHIRE","A","A"
"{5F8EB2F3-C230-41FA-A698-000161944C08}","87000","1995-02-17 00:00","SK10 3QZ","D","N","L","2","","MURRAY CLOSE","MACCLESFIELD","MACCLESFIELD","MACCLESFIELD","CHESHIRE","A","A"
"{D6C87901-4D58-4A6C-BF84-000167EE17C8}","29950","1995-01-31 00:00","M27 4BA","T","N","L","97","","PENDLEBURY ROAD","PENDLEBURY","MANCHESTER","SALFORD","GREATER MANCHESTER","A","A"
"{3AF69842-E510-47ED-B888-000169A74951}","40500","1995-08-21 00:00","CT7 0AP","T","N","F","10","","ANVIL CLOSE","BIRCHINGTON","BIRCHINGTON","THANET","KENT","A","A"
"{16AFAE01-5216-498F-BA54-0132A42A8434}","89950","1995-12-01 00:00","NG22 8UD","D","Y","F","1","","FOREST LINK","BILSTHORPE","NEWARK","NEWARK AND SHERWOOD","NOTTINGHAMSHIRE","A","A"
"{103E6728-5CE9-432A-AFE3-0132AB96C37A}","63000","1995-04-27 00:00","BB5 4DJ","S","N","L","24","","WINDSOR AVENUE","CHURCH","ACCRINGTON","HYNDBURN","LANCASHIRE","A","A"
"{9583E919-7491-4178-8E05-0132BF4FD483}","53000","1995-05-26 00:00","MK42 0QT","S","N","F","10","","MYRTLE ROAD","BEDFORD","BEDFORD","NORTH BEDFORDSHIRE","BEDFORDSHIRE","A","A"
"{8A3670F0-2E08-40F8-AB37-0132C2C9111D}","68500","1995-07-20 00:00","OL4 4JH","S","N","L","12A","","ST ANNES CRESCENT","GRASSCROFT","OLDHAM","OLDHAM","GREATER MANCHESTER","A","A"
"{1CAAB032-5D6A-4662-B97E-009AE34CC929}","36500","1995-11-30 00:00","CV7 8HA","T","N","F","27","","GUN HILL","ARLEY","COVENTRY","NORTH WARWICKSHIRE","WARWICKSHIRE","A","A"
"{EF1ED3D8-D3D9-498C-9A19-009AF79C5618}","25000","1995-07-14 00:00","TS1 3NB","T","N","F","2","","APSLEY STREET","MIDDLESBROUGH","MIDDLESBROUGH","MIDDLESBROUGH","MIDDLESBROUGH","A","A"
"{4347FCC3-C74A-467A-8BBD-009B0F132A95}","52000","1995-03-01 00:00","YO15 2EB","S","N","F","2A","","HASLEMERE AVENUE","BRIDLINGTON","BRIDLINGTON","EAST YORKSHIRE","HUMBERSIDE","A","A"
"{9E5699AD-DEC6-4443-9F42-009B37AFA432}","57600","1995-03-31 00:00","DY6 9HA","S","N","F","6","","CASEWELL ROAD","KINGSWINFORD","KINGSWINFORD","DUDLEY","WEST MIDLANDS","A","A"
